<svg id="office_365" data-name="office 365" xmlns="http://www.w3.org/2000/svg" width="512" height="512" viewBox="0 0 512 512">
  <defs>
    <style>
      .cls-1 {
        fill: #3e4c53;
      }

      .cls-1, .cls-3, .cls-6 {
        fill-rule: evenodd;
      }

      .cls-2 {
        fill: #242e32;
      }

      .cls-3 {
        fill: #313c41;
      }

      .cls-4 {
        fill: #e3583d;
      }

      .cls-5 {
        fill: #f47158;
      }

      .cls-6 {
        fill: #fff;
      }
    </style>
  </defs>
  <g id="office_365-2" data-name="office 365">
    <g id="laptop">
      <path id="laptop-2" data-name="laptop" class="cls-1" d="M380.989,195.511a23.537,23.537,0,0,0-23.438-23.5H154.428a23.537,23.537,0,0,0-23.437,23.5V359.987h250V195.511ZM350.006,327.957H161.973V202.976H350.006V327.957Z"/>
      <rect class="cls-2" x="211" y="349" width="90" height="19"/>
      <path id="laptop_copy" data-name="laptop copy" class="cls-3" d="M395.68,348.988h-111c-0.34,9.08-6.735,14.667-14.99,14.667H241.856c-8.557,0-15.117-8.007-15-14.667H117.332a7.352,7.352,0,0,0-7.325,7.334v7.333c0,16.135,13.183,23.335,29.3,23.335H373.677c16.114,0,29.328-7.2,29.328-23.335v-7.333A7.352,7.352,0,0,0,395.68,348.988Z"/>
    </g>
    <g id="bg">
      <rect class="cls-4" x="162" y="126" width="189" height="202"/>
      <rect id="Rectangle_2_copy_8" data-name="Rectangle 2 copy 8" class="cls-5" x="187" y="126" width="139" height="202"/>
      <path id="caret-right_copy_4" data-name="caret-right copy 4" class="cls-6" d="M220,201.061V253.7l16-7.7V205l31-8v62l-44.7-4.561,44.5,15.568,25.215-7.413V192.165L266.8,184.01Z"/>
    </g>
  </g>
</svg>
