<svg id="web" xmlns="http://www.w3.org/2000/svg" width="512" height="512" viewBox="0 0 512 512">
  <defs>
    <style>
      .cls-1 {
        fill: #3e4c53;
      }

      .cls-1, .cls-10, .cls-3, .cls-7, .cls-9 {
        fill-rule: evenodd;
      }

      .cls-10, .cls-2 {
        fill: #242e32;
      }

      .cls-3, .cls-4 {
        fill: #313c41;
      }

      .cls-5, .cls-9 {
        fill: #fff;
      }

      .cls-6 {
        fill: #c44f4f;
      }

      .cls-7, .cls-8 {
        fill: #e26969;
      }

      .cls-11 {
        fill: #aa3737;
      }

      .cls-12 {
        fill: #ffa42e;
      }

      .cls-13 {
        fill: #4a9426;
      }
    </style>
  </defs>
  <g id="e_commerce_site" data-name="e commerce site">
    <g id="laptop">
      <path id="laptop-2" data-name="laptop" class="cls-1" d="M380.989,194.48a23.537,23.537,0,0,0-23.438-23.5H154.428a23.537,23.537,0,0,0-23.437,23.5V358.956h250V194.48ZM350.006,326.926H161.973V201.945H350.006V326.926Z"/>
      <rect class="cls-2" x="211" y="347.969" width="90" height="19"/>
      <path id="laptop_copy" data-name="laptop copy" class="cls-3" d="M395.68,347.957h-111c-0.34,9.08-6.735,14.667-14.99,14.667H241.856c-8.557,0-15.117-8.007-15-14.667H117.332a7.352,7.352,0,0,0-7.325,7.334v7.333c0,16.134,13.183,23.334,29.3,23.334H373.677c16.114,0,29.328-7.2,29.328-23.334v-7.333A7.352,7.352,0,0,0,395.68,347.957Z"/>
      <circle class="cls-4" cx="256" cy="185.969" r="7"/>
    </g>
    <g id="bg">
      <rect id="Rectangle_2_copy_4" data-name="Rectangle 2 copy 4" class="cls-5" x="162" y="144" width="188" height="172"/>
      <rect id="Rectangle_2_copy_10" data-name="Rectangle 2 copy 10" class="cls-6" x="162" y="153" width="188" height="68"/>
      <path id="boxes" class="cls-7" d="M331.992,220.985l-0.25-17.843a1.981,1.981,0,0,0-1.974-1.974H319.9v11.844l-3.947-2.628L312,213.012V201.168h-9.87a1.981,1.981,0,0,0-1.974,1.974l0.278,17.843h31.555Zm-49.6-27.712h27.634A1.981,1.981,0,0,0,312,191.3V167.612a1.981,1.981,0,0,0-1.974-1.974h-9.87v11.844l-3.947-2.628-3.948,2.628V165.638H282.4a1.98,1.98,0,0,0-1.974,1.974V191.3A1.98,1.98,0,0,0,282.4,193.273Zm10.154,27.712-0.285-17.843a1.98,1.98,0,0,0-1.974-1.974h-9.869v11.844l-3.948-2.628-3.948,2.628V201.168h-9.869a1.98,1.98,0,0,0-1.974,1.974l0.312,17.843h31.555Z"/>
      <g>
        <g>
          <path class="cls-7" d="M185,236.969h40.838V295.15H185V236.969Z"/>
          <rect id="Rectangle_658_copy" data-name="Rectangle 658 copy" class="cls-6" x="185" y="280" width="41" height="15"/>
        </g>
        <g id="Group_26_copy" data-name="Group 26 copy">
          <rect class="cls-8" x="236" y="236.969" width="40.844" height="58.187"/>
          <rect id="Rectangle_658_copy-2" data-name="Rectangle 658 copy" class="cls-6" x="236" y="280" width="41" height="15"/>
        </g>
        <g id="Group_26_copy_2" data-name="Group 26 copy 2">
          <rect class="cls-8" x="286.75" y="236.969" width="40.844" height="58.187"/>
          <rect id="Rectangle_658_copy-3" data-name="Rectangle 658 copy" class="cls-6" x="286.75" y="280" width="41" height="15"/>
        </g>
      </g>
      <path id="Rounded_Rectangle_6_copy_5" data-name="Rounded Rectangle 6 copy 5" class="cls-9" d="M181,172h64v11H181V172Zm5.5,19h15a5.5,5.5,0,0,1,0,11h-15A5.5,5.5,0,0,1,186.5,191Z"/>
      <g id="Group_22_copy" data-name="Group 22 copy">
        <path id="Rectangle_2_copy_7" data-name="Rectangle 2 copy 7" class="cls-10" d="M162,126H350v27H162V126Zm0,183.969H350v17H162v-17Z"/>
        <circle class="cls-11" cx="178.5" cy="139.5" r="4.5"/>
        <circle id="Ellipse_6_copy" data-name="Ellipse 6 copy" class="cls-12" cx="192.5" cy="139.5" r="4.5"/>
        <circle id="Ellipse_6_copy_2" data-name="Ellipse 6 copy 2" class="cls-13" cx="206.5" cy="139.5" r="4.5"/>
      </g>
    </g>
  </g>
</svg>
