<svg id="web" xmlns="http://www.w3.org/2000/svg" width="512" height="512" viewBox="0 0 512 512">
  <defs>
    <style>
      .cls-1 {
        fill: #3e4c53;
      }

      .cls-1, .cls-11, .cls-3, .cls-6, .cls-8, .cls-9 {
        fill-rule: evenodd;
      }

      .cls-11, .cls-2 {
        fill: #242e32;
      }

      .cls-3, .cls-4 {
        fill: #313c41;
      }

      .cls-5, .cls-9 {
        fill: #fff;
      }

      .cls-6, .cls-7 {
        fill: #88c3f0;
      }

      .cls-8 {
        fill: #70a2c9;
      }

      .cls-10 {
        fill: #416b8a;
      }

      .cls-12 {
        fill: #aa3737;
      }

      .cls-13 {
        fill: #ffa42e;
      }

      .cls-14 {
        fill: #4a9426;
      }

      .cls-15 {
        fill: #e4e4e4;
      }
    </style>
  </defs>
  <g id="infosite">
    <g id="laptop">
      <path id="laptop-2" data-name="laptop" class="cls-1" d="M380.989,194.48a23.537,23.537,0,0,0-23.438-23.5H154.428a23.537,23.537,0,0,0-23.437,23.5V358.956h250V194.48ZM350.006,326.926H161.973V201.945H350.006V326.926Z"/>
      <rect class="cls-2" x="211" y="347.969" width="90" height="19"/>
      <path id="laptop_copy" data-name="laptop copy" class="cls-3" d="M395.68,347.957h-111c-0.34,9.08-6.735,14.667-14.99,14.667H241.856c-8.557,0-15.117-8.007-15-14.667H117.332a7.352,7.352,0,0,0-7.325,7.334v7.333c0,16.134,13.183,23.334,29.3,23.334H373.677c16.114,0,29.328-7.2,29.328-23.334v-7.333A7.352,7.352,0,0,0,395.68,347.957Z"/>
      <circle class="cls-4" cx="256" cy="185.969" r="7"/>
    </g>
    <g id="bg">
      <rect class="cls-5" x="162" y="215" width="188" height="101"/>
      <path id="Ellipse_7_copy_3" data-name="Ellipse 7 copy 3" class="cls-6" d="M196,266a13,13,0,1,1-13,13A13,13,0,0,1,196,266Zm40,0a13,13,0,1,1-13,13A13,13,0,0,1,236,266Zm40,0a13,13,0,1,1-13,13A13,13,0,0,1,276,266Zm40,0a13,13,0,1,1-13,13A13,13,0,0,1,316,266Z"/>
      <rect id="Rectangle_2_copy_4" data-name="Rectangle 2 copy 4" class="cls-7" x="162" y="144" width="188" height="101"/>
      <path id="male" class="cls-8" d="M296.9,163.7a20.367,20.367,0,1,0,20.366,20.366A20.366,20.366,0,0,0,296.9,163.7Zm15.275,45.824h-3.615a27.968,27.968,0,0,1-23.32,0h-3.615A15.275,15.275,0,0,0,266.346,224.8v43.279a7.638,7.638,0,0,0,7.638,7.637h5.091V319a7.638,7.638,0,0,0,7.638,7.637h20.366A7.638,7.638,0,0,0,314.717,319V275.716h5.091a7.638,7.638,0,0,0,7.638-7.637V224.8A15.275,15.275,0,0,0,312.171,209.525Z"/>
      <path id="Rounded_Rectangle_6" data-name="Rounded Rectangle 6" class="cls-9" d="M181,174h58v30H181V174Zm5.5,38h15a5.5,5.5,0,0,1,0,11h-15A5.5,5.5,0,0,1,186.5,212Z"/>
      <rect id="Rectangle_2_copy_7" data-name="Rectangle 2 copy 7" class="cls-10" x="162" y="309.969" width="188" height="17"/>
      <g id="Group_22_copy" data-name="Group 22 copy">
        <path id="Rectangle_2_copy_7-2" data-name="Rectangle 2 copy 7" class="cls-11" d="M162,126H350v27H162V126Zm0,183.969H350v17H162v-17Z"/>
        <circle class="cls-12" cx="178.5" cy="139.5" r="4.5"/>
        <circle id="Ellipse_6_copy" data-name="Ellipse 6 copy" class="cls-13" cx="192.5" cy="139.5" r="4.5"/>
        <circle id="Ellipse_6_copy_2" data-name="Ellipse 6 copy 2" class="cls-14" cx="206.5" cy="139.5" r="4.5"/>
      </g>
      <rect class="cls-15" x="223" y="266" width="106" height="26"/>
    </g>
  </g>
</svg>
