<svg id="office_365" data-name="office 365" xmlns="http://www.w3.org/2000/svg" width="512" height="512" viewBox="0 0 512 512">
  <defs>
    <style>
      .cls-1 {
        fill: #8195a1;
      }

      .cls-2 {
        fill: #eaeaea;
        stroke: #201f25;
        stroke-width: 3px;
      }

      .cls-3 {
        fill: #40484d;
      }

      .cls-3, .cls-5 {
        fill-rule: evenodd;
      }

      .cls-4 {
        fill: #b1cddd;
      }

      .cls-5 {
        fill: #e3583d;
      }
    </style>
  </defs>
  <g id="office_365_training" data-name="office 365 training">
    <rect id="Rounded_Rectangle_4" data-name="Rounded Rectangle 4" class="cls-1" x="235" y="126" width="43" height="259" rx="10" ry="10"/>
    <g>
      <rect class="cls-2" x="147" y="166" width="218" height="193"/>
      <path id="Rectangle_6_copy" data-name="Rectangle 6 copy" class="cls-3" d="M127,165h29V360H127V165Zm230,0h29V360H357V165Z"/>
      <rect id="Rounded_Rectangle_3" data-name="Rounded Rectangle 3" class="cls-4" x="110" y="147" width="293" height="31" rx="15.5" ry="15.5"/>
      <rect id="Rounded_Rectangle_3_copy_3" data-name="Rounded Rectangle 3 copy 3" class="cls-4" x="110" y="335" width="293" height="31" rx="15.5" ry="15.5"/>
      <rect id="Rounded_Rectangle_3_copy_4" data-name="Rounded Rectangle 3 copy 4" class="cls-1" x="228" y="320" width="58" height="31" rx="15.5" ry="15.5"/>
      <path id="caret-right_copy_3" data-name="caret-right copy 3" class="cls-5" d="M212,216.83V281.1l20.034-9.051V221.356l37.163-9.051v75.126L214.809,282l54.385,19.008,30.818-9.052V205.969l-30.818-9.957Z"/>
    </g>
  </g>
</svg>
