<svg id="office_365" data-name="office 365" xmlns="http://www.w3.org/2000/svg" width="512" height="512" viewBox="0 0 512 512">
  <defs>
    <style>
      .cls-1 {
        fill: #c9af7e;
      }

      .cls-1, .cls-3, .cls-4, .cls-5 {
        fill-rule: evenodd;
      }

      .cls-2 {
        fill: #fff;
      }

      .cls-3 {
        fill: #d9bd88;
      }

      .cls-4 {
        fill: #ebcf99;
      }

      .cls-5 {
        fill: #e3583d;
      }
    </style>
  </defs>
  <g id="office_365_email_and_apps" data-name="office 365 email and apps">
    <g>
      <path id="envelope" class="cls-1" d="M255.993,149.01c11.6-.207,28.3,15.122,36.7,21.44,66.348,49.872,71.4,54.222,86.7,66.651a12.559,12.559,0,0,1,4.6,9.789v108.9c0,13.93-10.749,25.23-24,25.23H152c-13.249,0-24-11.3-24-25.23V246.89a12.637,12.637,0,0,1,4.6-9.789c15.3-12.376,20.349-16.779,86.7-66.651C227.694,164.132,244.393,148.8,255.993,149.01Z"/>
      <rect class="cls-2" x="158" y="126" width="197" height="219"/>
      <path id="envelope_copy" data-name="envelope copy" class="cls-3" d="M379.158,253.667c-11.2,8.953-26,20.373-77.006,58.494C292,319.776,273.85,336.8,256,336.65c-17.75.1-35.552-16.565-46.1-24.489-51-38.121-65.855-49.49-77.055-58.441a2.985,2.985,0,0,0-4.851,2.418V361.293c0,13.632,10.752,24.694,24,24.694H360.007c13.251,0,24-11.062,24-24.694V256.085A3,3,0,0,0,379.158,253.667ZM379.152,276l-7.758-16L384,250v31Zm-240.485-9,0.969-8-11.575-9v23Z"/>
      <path id="envelope_copy_2" data-name="envelope copy 2" class="cls-4" d="M366.015,386c-13.577-13.121-18.059-17.713-76.939-70.36-7.453-6.669-22.273-22.851-32.567-22.633-10.3-.218-25.114,15.964-32.568,22.633-58.88,52.647-63.362,57.3-76.938,70.36H366.015Z"/>
      <path id="caret-right_copy" data-name="caret-right copy" class="cls-5" d="M212,176.83V241.1l20.034-9.051V181.356l37.163-9.051v75.126L214.809,242l54.385,19.008,30.818-9.052V165.969l-30.818-9.957Z"/>
    </g>
  </g>
</svg>
