<svg xmlns="http://www.w3.org/2000/svg" width="512" height="512" viewBox="0 0 512 512">
  <defs>
    <style>
      .cls-1 {
        fill: #1f47a3;
        fill-rule: evenodd;
      }
    </style>
  </defs>
  <path id="arrow_down" data-name="arrow down" class="cls-1" d="M387.506,161.988c18.215,0,27.337,23.888,14.456,37.858L270.446,342.515a19.33,19.33,0,0,1-28.909,0L110.023,199.846c-12.879-13.97-3.759-37.858,14.453-37.858h263.03Z"/>
</svg>
