<svg xmlns="http://www.w3.org/2000/svg" width="512" height="512" viewBox="0 0 512 512">
  <defs>
    <style>
      .cls-1 {
        fill: #1f47a3;
        fill-rule: evenodd;
      }
    </style>
  </defs>
  <path id="booking_details" data-name="booking details" class="cls-1" d="M379.39,399.809c15.734,0,28.49-13.783,28.49-30.785V143.262c0-17-12.756-30.785-28.49-30.785H132.475c-15.735,0-28.491,13.783-28.491,30.785V369.024c0,17,12.756,30.785,28.491,30.785H379.39ZM179.958,168.917c13.112,0,23.742,11.487,23.742,25.655s-10.63,25.655-23.742,25.655-23.742-11.487-23.742-25.655S166.846,168.917,179.958,168.917Zm0,61.571c13.112,0,23.742,11.487,23.742,25.655S193.07,281.8,179.958,281.8s-23.742-11.487-23.742-25.655S166.846,230.488,179.958,230.488Zm0,61.572c13.112,0,23.742,11.486,23.742,25.654s-10.63,25.655-23.742,25.655-23.742-11.486-23.742-25.655S166.846,292.06,179.958,292.06ZM350.9,204.834a7.426,7.426,0,0,1-7.122,7.7H225.068a7.426,7.426,0,0,1-7.123-7.7V184.31a7.426,7.426,0,0,1,7.123-7.7H343.777a7.426,7.426,0,0,1,7.122,7.7v20.524Zm0,61.571a7.426,7.426,0,0,1-7.122,7.7H225.068a7.426,7.426,0,0,1-7.123-7.7V245.881a7.426,7.426,0,0,1,7.123-7.7H343.777a7.426,7.426,0,0,1,7.122,7.7V266.4Zm0,61.571a7.426,7.426,0,0,1-7.122,7.7H225.068a7.427,7.427,0,0,1-7.123-7.7V307.452a7.426,7.426,0,0,1,7.123-7.7H343.777a7.426,7.426,0,0,1,7.122,7.7v20.524Z"/>
</svg>
