<svg xmlns="http://www.w3.org/2000/svg" width="512" height="512" viewBox="0 0 512 512">
  <defs>
    <style>
      .cls-1 {
        fill: #9a171f;
        fill-rule: evenodd;
      }
    </style>
  </defs>
  <path id="call" class="cls-1" d="M376.231,92.974H136.63c-18.045,0-32.673,15.638-32.673,34.93V384.059c0,19.291,14.628,34.93,32.673,34.93h239.6c18.045,0,32.673-15.639,32.673-34.93V127.9C408.9,108.612,394.276,92.974,376.231,92.974ZM167.941,372.415a10.386,10.386,0,0,1-9.949-8.461l-10.209-47.3a14.03,14.03,0,0,1-.261-2.455c0-3.973,2.772-8.468,6.188-10.033l47.647-21.83a11.492,11.492,0,0,1,4.021-.883,11.288,11.288,0,0,1,7.9,4l21.1,27.569c33.315-16.71,60.1-45.742,75.406-80.616L284,209.852a12.73,12.73,0,0,1-3.745-8.449,13.809,13.809,0,0,1,.825-4.3L301.5,146.165c1.464-3.651,5.668-6.615,9.384-6.615a11.53,11.53,0,0,1,2.3.279l44.245,10.915c4.369,1.077,7.915,5.841,7.915,10.635h0C365.34,278.025,276.888,372.415,167.941,372.415Z"/>
</svg>
