<svg xmlns="http://www.w3.org/2000/svg" width="512" height="512" viewBox="0 0 512 512">
  <defs>
    <style>
      .cls-1 {
        fill: #1f47a3;
        fill-rule: evenodd;
      }
    </style>
  </defs>
  <path id="date_dtails" data-name="date dtails" class="cls-1" d="M123.369,389.341c0,17,12.761,30.786,28.49,30.786H360.787c15.729,0,28.491-13.79,28.491-30.786V214.889H123.369V389.341ZM313.3,263.633c0-4.233,3.205-7.7,7.122-7.7h23.742c3.917,0,7.123,3.463,7.123,7.7v25.655c0,4.233-3.206,7.7-7.123,7.7H320.426c-3.917,0-7.122-3.463-7.122-7.7V263.633Zm0,82.1c0-4.233,3.205-7.7,7.122-7.7h23.742c3.917,0,7.123,3.463,7.123,7.7v25.655c0,4.232-3.206,7.7-7.123,7.7H320.426c-3.917,0-7.122-3.464-7.122-7.7V345.728Zm-75.974-82.1c0-4.233,3.2-7.7,7.122-7.7h23.742c3.917,0,7.123,3.463,7.123,7.7v25.655c0,4.233-3.206,7.7-7.123,7.7H244.452c-3.917,0-7.122-3.463-7.122-7.7V263.633Zm0,82.1c0-4.233,3.2-7.7,7.122-7.7h23.742c3.917,0,7.123,3.463,7.123,7.7v25.655c0,4.232-3.206,7.7-7.123,7.7H244.452c-3.917,0-7.122-3.464-7.122-7.7V345.728Zm-75.974-82.1c0-4.233,3.205-7.7,7.123-7.7H192.22c3.917,0,7.123,3.463,7.123,7.7v25.655c0,4.233-3.206,7.7-7.123,7.7H168.479c-3.918,0-7.123-3.463-7.123-7.7V263.633Zm0,82.1c0-4.233,3.205-7.7,7.123-7.7H192.22c3.917,0,7.123,3.463,7.123,7.7v25.655c0,4.232-3.206,7.7-7.123,7.7H168.479c-3.918,0-7.123-3.464-7.123-7.7V345.728ZM360.787,132.794H332.3V102.009c0-5.644-4.273-10.262-9.5-10.262H303.807c-5.223,0-9.5,4.618-9.5,10.262v30.785H218.336V102.009c0-5.644-4.273-10.262-9.5-10.262H189.846c-5.223,0-9.5,4.618-9.5,10.262v30.785h-28.49c-15.729,0-28.49,13.79-28.49,30.786v30.785H389.278V163.58C389.278,146.584,376.516,132.794,360.787,132.794Z"/>
</svg>
