<svg id="digital_marketing" data-name="digital marketing" xmlns="http://www.w3.org/2000/svg" width="512" height="512" viewBox="0 0 512 512">
  <defs>
    <style>
      .cls-1 {
        fill: #3e4c53;
      }

      .cls-1, .cls-12, .cls-13, .cls-3, .cls-8 {
        fill-rule: evenodd;
      }

      .cls-2, .cls-8 {
        fill: #242e32;
      }

      .cls-3, .cls-4 {
        fill: #313c41;
      }

      .cls-5 {
        fill: #fff;
      }

      .cls-13, .cls-6 {
        fill: #8554bd;
      }

      .cls-12, .cls-7 {
        fill: #eedfff;
      }

      .cls-9 {
        fill: #aa3737;
      }

      .cls-10 {
        fill: #ffa42e;
      }

      .cls-11 {
        fill: #4a9426;
      }
    </style>
  </defs>
  <g id="content_optimization" data-name="content optimization">
    <g id="laptop">
      <path id="laptop-2" data-name="laptop" class="cls-1" d="M380.989,194.48a23.537,23.537,0,0,0-23.438-23.5H154.428a23.537,23.537,0,0,0-23.437,23.5V358.956h250V194.48ZM350.006,326.926H161.973V201.945H350.006V326.926Z"/>
      <rect class="cls-2" x="211" y="347.969" width="90" height="19"/>
      <path id="laptop_copy" data-name="laptop copy" class="cls-3" d="M395.68,347.957h-111c-0.34,9.08-6.735,14.667-14.99,14.667H241.856c-8.557,0-15.117-8.007-15-14.667H117.332a7.352,7.352,0,0,0-7.325,7.334v7.333c0,16.134,13.183,23.334,29.3,23.334H373.677c16.114,0,29.328-7.2,29.328-23.334v-7.333A7.352,7.352,0,0,0,395.68,347.957Z"/>
      <circle class="cls-4" cx="256" cy="185.969" r="7"/>
    </g>
    <g id="bg">
      <rect id="Rectangle_2_copy_4" data-name="Rectangle 2 copy 4" class="cls-5" x="162" y="144" width="188" height="172"/>
      <rect id="Rectangle_2_copy_10" data-name="Rectangle 2 copy 10" class="cls-6" x="162" y="144" width="188" height="27"/>
      <rect id="Rectangle_2_copy_13" data-name="Rectangle 2 copy 13" class="cls-5" x="162" y="171" width="188" height="67"/>
      <rect id="Rectangle_2_copy_14" data-name="Rectangle 2 copy 14" class="cls-7" x="162" y="218" width="159" height="20"/>
      <rect id="Rectangle_2_copy_16" data-name="Rectangle 2 copy 16" class="cls-7" x="177" y="190" width="159" height="10"/>
      <rect id="Rectangle_2_copy_15" data-name="Rectangle 2 copy 15" class="cls-6" x="312" y="218" width="38" height="20"/>
      <g id="Group_22_copy" data-name="Group 22 copy">
        <path id="Rectangle_2_copy_7" data-name="Rectangle 2 copy 7" class="cls-8" d="M162,126H350v27H162V126Zm0,183.969H350v17H162v-17Z"/>
        <circle class="cls-9" cx="178.5" cy="139.5" r="4.5"/>
        <circle id="Ellipse_6_copy" data-name="Ellipse 6 copy" class="cls-10" cx="192.5" cy="139.5" r="4.5"/>
        <circle id="Ellipse_6_copy_2" data-name="Ellipse 6 copy 2" class="cls-11" cx="206.5" cy="139.5" r="4.5"/>
      </g>
    </g>
    <g id="Group_38_copy" data-name="Group 38 copy">
      <path id="Rectangle_2_copy" data-name="Rectangle 2 copy" class="cls-12" d="M202,254H329v12H202V254Zm0,24H329v12H202V278Z"/>
      <path id="Ellipse_593_copy" data-name="Ellipse 593 copy" class="cls-13" d="M189,254a6,6,0,1,1-6,6A6,6,0,0,1,189,254Zm0,24a6,6,0,1,1-6,6A6,6,0,0,1,189,278Z"/>
    </g>
  </g>
</svg>
