<svg id="business_unselected" data-name="business unselected" xmlns="http://www.w3.org/2000/svg" width="512" height="512" viewBox="0 0 512 512">
  <defs>
    <style>
      .cls-1 {
        fill: #adadad;
      }

      .cls-1, .cls-2, .cls-3 {
        fill-rule: evenodd;
      }

      .cls-2 {
        fill: #d9d9d9;
      }

      .cls-3 {
        fill: #c3c3c3;
      }
    </style>
  </defs>
  <path id="Rectangle_1143_copy" data-name="Rectangle 1143 copy" class="cls-1" d="M141.38,105.285H355.023V425.736H141.38V105.285Z"/>
  <path id="building" class="cls-2" d="M404.5,412.2h-14V93.086a16.8,16.8,0,0,0-16.8-16.8H138.576a16.8,16.8,0,0,0-16.795,16.8V412.2h-14a8.4,8.4,0,0,0-8.4,8.4v14H412.9v-14A8.4,8.4,0,0,0,404.5,412.2ZM188.961,129.476a8.4,8.4,0,0,1,8.4-8.4h27.992a8.4,8.4,0,0,1,8.4,8.4v27.992a8.4,8.4,0,0,1-8.4,8.4H197.359a8.4,8.4,0,0,1-8.4-8.4V129.476Zm0,67.181a8.4,8.4,0,0,1,8.4-8.4h27.992a8.4,8.4,0,0,1,8.4,8.4v27.992a8.4,8.4,0,0,1-8.4,8.4H197.359a8.4,8.4,0,0,1-8.4-8.4V196.657Zm36.39,103.571H197.359a8.4,8.4,0,0,1-8.4-8.4V263.838a8.4,8.4,0,0,1,8.4-8.4h27.992a8.4,8.4,0,0,1,8.4,8.4v27.993A8.4,8.4,0,0,1,225.351,300.228ZM278.537,412.2H233.749V353.413a8.4,8.4,0,0,1,8.4-8.4h27.992a8.4,8.4,0,0,1,8.4,8.4V412.2Zm44.787-120.366a8.4,8.4,0,0,1-8.4,8.4H286.934a8.4,8.4,0,0,1-8.4-8.4V263.838a8.4,8.4,0,0,1,8.4-8.4h27.993a8.4,8.4,0,0,1,8.4,8.4v27.993Zm0-67.182a8.4,8.4,0,0,1-8.4,8.4H286.934a8.4,8.4,0,0,1-8.4-8.4V196.657a8.4,8.4,0,0,1,8.4-8.4h27.993a8.4,8.4,0,0,1,8.4,8.4v27.992Zm0-67.181a8.4,8.4,0,0,1-8.4,8.4H286.934a8.4,8.4,0,0,1-8.4-8.4V129.476a8.4,8.4,0,0,1,8.4-8.4h27.993a8.4,8.4,0,0,1,8.4,8.4v27.992Z"/>
  <path class="cls-3" d="M99.3,412.8H413.307v22.673H99.3V412.8Z"/>
</svg>
