<svg id="home_selected" data-name="home selected" xmlns="http://www.w3.org/2000/svg" width="512" height="512" viewBox="0 0 512 512">
  <defs>
    <style>
      .cls-1 {
        fill: #9a653f;
      }

      .cls-2 {
        fill: #d0d5df;
      }

      .cls-2, .cls-3, .cls-4 {
        fill-rule: evenodd;
      }

      .cls-3 {
        fill: #7e2f2f;
      }

      .cls-4 {
        fill: #8f3a3a;
      }
    </style>
  </defs>
  <rect class="cls-1" x="196" y="283" width="110" height="130"/>
  <path id="home" class="cls-2" d="M199.654,413.333l-66.635-.6a11.2,11.2,0,0,1-11.2-11.2V241.528L250.845,135.262a8.531,8.531,0,0,1,10.707,0l129,106.188V401.537a11.2,11.2,0,0,1-11.2,11.2l-70.3.389h0c-6.18,0-17.165.21-17.165,0.21V320.909a11.272,11.272,0,0,0-11.331-11.2H230.371a11.241,11.241,0,0,0-11.332,11.139v92.489S205.8,413.3,199.654,413.333Z"/>
  <path id="home_copy_2" data-name="home copy 2" class="cls-3" d="M396.145,204.583V107.654a8.4,8.4,0,0,0-8.4-8.4H348.559a8.4,8.4,0,0,0-8.4,8.4V186.74l50.478,42.082Z"/>
  <path id="home_copy" data-name="home copy" class="cls-4" d="M396.145,204.583l58.5,48.224a9.513,9.513,0,0,1,3.1,6.516,9.762,9.762,0,0,1-1.91,5.332l-17.846,21.694a9.521,9.521,0,0,1-6.472,3.047,9.753,9.753,0,0,1-5.354-1.927L261.552,151.888a8.531,8.531,0,0,0-10.707,0L86.237,287.469a9.76,9.76,0,0,1-5.348,1.922,9.521,9.521,0,0,1-6.486-3.063L56.558,264.634a9.758,9.758,0,0,1-1.928-5.354,9.529,9.529,0,0,1,3.048-6.473L234.819,106.919c5.134-4.224,14.7-7.653,21.344-7.653s16.21,3.429,21.345,7.653l62.653,51.548Z"/>
</svg>
