<svg id="mastercard_selected" data-name="mastercard selected" xmlns="http://www.w3.org/2000/svg" width="512" height="512" viewBox="0 0 512 512">
  <defs>
    <style>
      .cls-1 {
        fill: #ff5f01;
        stroke: #201f25;
        stroke-width: 3px;
      }

      .cls-1, .cls-2, .cls-3, .cls-4, .cls-5 {
        fill-rule: evenodd;
      }

      .cls-2 {
        fill: #fff;
      }

      .cls-3 {
        fill: #ea001b;
      }

      .cls-4 {
        fill: #f79e1c;
      }

      .cls-5 {
        fill: #2b2b2b;
      }
    </style>
  </defs>
  <path class="cls-1" d="M242,297l27,2,27-30,2-71-56-32-12,24-21,62Z"/>
  <path class="cls-2" d="M377,350l-38,8-189,3-10-37,24-5,210-4Z"/>
  <path class="cls-3" d="M154,303l63,18,20-5,11-10,7-6-6-8-16-22-6-31,2-22,14-31,15-15-27-21-76,6-22,52-2,68Z"/>
  <path class="cls-4" d="M254,313l52,6s39.682-.357,43-2,15.254-8.824,17-12,11.1-30.156,12-33-3.344-32.871-1-52-3.52-55.186-10-61-75-10-75-10l-34,7-2,15,7,7s57.561,62.357-8,124Z"/>
  <path id="cc-mastercard" class="cls-5" d="M355.807,339.5c0-3.547-2.35-6.385-5.721-6.385-3.474,0-5.721,2.838-5.721,6.385s2.247,6.386,5.721,6.386C353.457,345.886,355.807,343.211,355.807,339.5Zm-158.76-6.385c-3.626,0-5.721,2.838-5.721,6.385s2.095,6.386,5.721,6.386c3.32,0,5.568-2.675,5.568-6.386C202.564,335.953,200.367,333.115,197.047,333.115Zm60.02-.163c-2.758,0-4.443,1.91-4.852,4.748h9.756C261.511,334.589,259.724,332.952,257.067,332.952Zm55.066,0.163c-3.474,0-5.568,2.838-5.568,6.385s2.094,6.386,5.568,6.386,5.721-2.675,5.721-6.386C317.854,335.953,315.606,333.115,312.133,333.115Zm54.094,14.244a2.178,2.178,0,0,0-.255-0.6c-0.153-.108-0.306-0.108-0.562-0.272a0.647,0.647,0,0,0-.562-0.164,0.884,0.884,0,0,0-.562.164,1.789,1.789,0,0,0-.408.272,1.066,1.066,0,0,0-.256.6,0.758,0.758,0,0,0-.153.6,1.049,1.049,0,0,0,.153.6,0.663,0.663,0,0,0,.256.436,0.888,0.888,0,0,0,.408.273,0.962,0.962,0,0,0,.562.164,0.6,0.6,0,0,0,.562-0.164,0.644,0.644,0,0,0,.562-0.273,1.937,1.937,0,0,1,.255-0.436,3.06,3.06,0,0,1,.153-0.6A3.065,3.065,0,0,0,366.227,347.359Zm-1.124.764,0.563,0.71h-0.409l-0.562-.765h-0.153v0.765h-0.409v-1.91h0.817a2.574,2.574,0,0,1,.562.163,0.7,0.7,0,0,1,0,.873A1.651,1.651,0,0,1,365.1,348.123Zm38.26-188.33c0-14.462-10.982-26.195-24.519-26.195H133.656c-13.537,0-24.519,11.733-24.519,26.195v192.1c0,14.461,10.982,26.194,24.519,26.194H378.844c13.537,0,24.519-11.733,24.519-26.194v-192.1ZM141.829,235.976c0-41.584,31.721-75.474,70.747-75.419a67.615,67.615,0,0,1,39.077,12.606c-36.983,32.362-37.238,93.429,0,125.79a68.006,68.006,0,0,1-39.077,12.606C173.55,311.559,141.829,277.724,141.829,235.976ZM256.25,295.352c-36.012-29.961-35.859-88.517,0-118.7C292.109,206.835,292.262,265.337,256.25,295.352ZM183.562,336.99h0.1v12.552h-4.188c0-11.024,1.021-16.481-4.189-16.481-5.874,0-4.6,6.494-4.6,16.481h-4.036c0-10.914,1.022-16.481-4.188-16.481-5.875,0-4.6,6.167-4.6,16.481H153.68V329.514h4.188v2.4a6.357,6.357,0,0,1,5.415-2.947,6.683,6.683,0,0,1,6.232,3.547,7.161,7.161,0,0,1,6.538-3.547C180.65,329.132,183.562,332.242,183.562,336.99Zm22.935-7.476V349.6h-4.035v-2.51a6.918,6.918,0,0,1-5.977,2.947c-5.261,0-9.3-4.42-9.3-10.533,0-6.057,4.035-10.532,9.3-10.532a7.188,7.188,0,0,1,5.977,2.947v-2.4H206.5Zm20.688,13.97c0,7.367-10.931,8.241-16.652,4.093l1.788-3.438c3.677,2.729,10.573,3,10.573-.436,0-3.657-11.7-.382-11.7-8.186,0-7.75,10.624-7.8,15.426-4.475l-1.685,3.547c-3.372-2.019-9.45-2.51-9.45.6C215.488,339.01,227.185,335.3,227.185,343.484Zm18.083,5.076c-2.708,1.91-11.544,3.656-11.544-5.949V333.5h-3.883v-3.983h3.883V323.4h4.188v6.112H244.6v4.038h-6.692v9.059c0,4.639,4.291,3.384,6.232,2.238Zm6.793-7.313c1.175,5.839,7.2,6.167,11.187,2.674l1.941,3.275c-5.721,5.293-17.265,3.437-17.265-7.75,0-6.221,3.882-10.532,9.3-10.532,5.108,0,8.888,3.492,8.888,12.333H252.061Zm30.189-11.733-1.226,4.147c-1.685-.927-6.538-1.746-6.538,4.584v11.3H270.3V329.514h4.189v2.4A5.783,5.783,0,0,1,282.25,329.514Zm5.415,9.986c0,6.113,5.874,8.241,10.574,4.694l1.941,3.547c-5.261,4.8-16.7,2.62-16.7-8.186,0-10.423,10.779-13.152,16.7-8.186l-1.941,3.548C293.59,331.26,287.665,333.279,287.665,339.5Zm34.071-9.986V349.6h-4.189v-2.51c-3.831,5.894-15.273,2.892-15.273-7.586,0-10.2,11.034-13.588,15.273-7.585v-2.4h4.189Zm17.214,0-1.226,4.147c-1.941-1.036-6.538-1.419-6.538,4.584v11.3H327.15V329.514h4.036v2.4C333.331,327.931,337.724,328.859,338.95,329.514Zm20.586-8.132V349.6H355.5v-2.51c-3.779,5.84-15.273,3-15.273-7.586,0-10.368,11.085-13.533,15.273-7.585V321.382h4.036Zm3.882-40.984h-0.97v-0.436H364.8V280.4h-0.971v2.511h-0.408V280.4Zm3.371,67.561a1.681,1.681,0,0,1-.153.764c-0.153.164-.256,0.437-0.409,0.6s-0.408.272-.561,0.436a1.473,1.473,0,0,1-.818.164,1.312,1.312,0,0,1-.715-0.164,1.8,1.8,0,0,1-.562-0.436,0.859,0.859,0,0,1-.409-0.6,1.681,1.681,0,0,1-.153-0.764,1.765,1.765,0,0,1,.153-0.873,0.859,0.859,0,0,1,.409-0.6,2.717,2.717,0,0,1,.562-0.437,5.155,5.155,0,0,0,.715-0.163c0.255,0,.562.163,0.818,0.163,0.153,0.164.408,0.273,0.561,0.437s0.256,0.437.409,0.6A1.765,1.765,0,0,1,366.789,347.959Zm1.635-68.052v2.947h-0.562v-2.237l-0.715,1.91h-0.562l-0.817-1.91v2.237h-0.409v-2.947h0.715l0.817,1.91,0.818-1.91h0.715Zm2.247-43.931c0,41.748-31.721,75.583-70.747,75.529A67.854,67.854,0,0,1,260.847,298.9c37.392-32.2,36.83-93.429,0-125.79A68.007,68.007,0,0,1,299.924,160.5C338.95,160.5,370.671,194.392,370.671,235.976Z"/>
</svg>
