<svg id="visa_selected" data-name="visa selected" xmlns="http://www.w3.org/2000/svg" width="512" height="512" viewBox="0 0 512 512">
  <defs>
    <style>
      .cls-1 {
        fill: #fff;
      }

      .cls-1, .cls-2, .cls-3 {
        fill-rule: evenodd;
      }

      .cls-2 {
        fill: #eea13e;
      }

      .cls-3 {
        fill: #15559b;
      }
    </style>
  </defs>
  <path id="cc-visa" class="cls-1" d="M392.989,165.441c0-13.486-10.264-24.427-22.915-24.427H140.926c-12.651,0-22.915,10.941-22.915,24.427V344.573c0,13.486,10.264,24.427,22.915,24.427H370.074c12.651,0,22.915-10.941,22.915-24.427V165.441Z"/>
  <path class="cls-2" d="M129,230l18-6a82.6,82.6,0,0,1,29,35l1-43-12-14-23-1-15,1-4,7Z"/>
  <path id="cc-visa_copy" data-name="cc-visa copy" class="cls-3" d="M349.268,242.716l-1.43-7.313c-1.022,3.165-2.81,8.3-2.707,8.131,0,0-6.488,18.883-8.173,23.739h17.061C353.15,263.017,349.268,242.716,349.268,242.716Zm54.1-82.569c0-14.461-10.982-26.194-24.519-26.194H133.656c-13.537,0-24.519,11.733-24.519,26.194v192.1c0,14.462,10.982,26.195,24.519,26.195H378.844c13.537,0,24.519-11.733,24.519-26.195v-192.1ZM187.035,297.234H165.326l-18.287-73.673a78.217,78.217,0,0,0-21.556-9.332l0.357-1.692h33.05c4.5,0.219,8.121,1.746,9.3,7.149l7.151,38.965,2.2,11.733,20.075-57.847h21.709Zm48.221,0.109H214.772l12.822-84.806h20.534Zm71.462-27.723c-0.153,17.572-14.2,28.978-35.757,28.923-9.194-.108-18.082-2.183-22.884-4.529l2.86-19.046,2.708,1.365c6.691,3.165,11.084,4.529,19.257,4.529,5.874,0,12.209-2.619,12.311-8.3,0-3.657-2.707-6.385-10.625-10.532-7.764-4.093-18.134-10.861-17.98-23.03,0.1-16.481,14.353-28.051,34.632-28.051a48.152,48.152,0,0,1,18.389,3.6l-2.809,18.337-1.839-.928a33.293,33.293,0,0,0-15.273-3.22c-8.071,0-11.7,3.711-11.8,7.313,0,3.984,4.393,6.6,11.595,10.478C301.3,252.594,306.82,259.961,306.718,269.62Zm72.126,27.723h-19s-1.839-9.714-2.452-12.716H331.033c-0.767,2.238-4.291,12.716-4.291,12.716H305.185l30.5-77.766c2.094-5.512,5.823-7.04,10.727-7.04h15.886Z"/>
</svg>
