<svg id="window_selected" data-name="window selected" xmlns="http://www.w3.org/2000/svg" width="512" height="512" viewBox="0 0 512 512">
  <defs>
    <style>
      .cls-1 {
        fill: #c3e5ff;
      }

      .cls-1, .cls-2, .cls-3 {
        fill-rule: evenodd;
      }

      .cls-2 {
        fill: #935f22;
      }

      .cls-3 {
        fill: #6f491c;
      }
    </style>
  </defs>
  <path class="cls-1" d="M146.425,148.8l-3.237,203.933,55.029,6.474,51.793-3.237H350.358l12.948-19.422V155.27l-29.133-19.422Z"/>
  <path id="building_copy_3" data-name="building copy 3" class="cls-2" d="M386.052,372.961V138.606a12.112,12.112,0,0,0-12.1-12.123l-234.959-.3A12.11,12.11,0,0,0,126.9,138.3V372.658Zm-225.834-94.3A16.359,16.359,0,0,1,176.577,262.3h54.528a16.359,16.359,0,0,1,16.359,16.359v54.532a16.359,16.359,0,0,1-16.359,16.359H176.577a16.359,16.359,0,0,1-16.359-16.359V278.657Zm193.578,54.5a16.364,16.364,0,0,1-16.366,16.359H282.877a16.364,16.364,0,0,1-16.367-16.359V278.626a16.364,16.364,0,0,1,16.367-16.359H337.43A16.364,16.364,0,0,1,353.8,278.626v54.532ZM160.218,175.139a16.369,16.369,0,0,1,16.359-16.378h54.528a16.369,16.369,0,0,1,16.359,16.378v54.6a16.369,16.369,0,0,1-16.359,16.378H176.577a16.369,16.369,0,0,1-16.359-16.378V175.139ZM353.8,229.7a16.373,16.373,0,0,1-16.366,16.378H282.877A16.373,16.373,0,0,1,266.51,229.7V175.108a16.373,16.373,0,0,1,16.367-16.378H337.43A16.373,16.373,0,0,1,353.8,175.108v54.6Z"/>
  <path id="building_copy_4" data-name="building copy 4" class="cls-3" d="M386.052,368.961h10.084a6.057,6.057,0,0,1,6.052,6.062v10.1l-291.421-.3v-10.1a6.055,6.055,0,0,1,6.048-6.062H126.9Z"/>
</svg>
